<svg width="83" height="83" viewBox="0 0 83 83" fill="none" xmlns="http://www.w3.org/2000/svg">
<circle cx="41.5" cy="41.5" r="40" fill="white" stroke="#ED3D55" stroke-width="3"/>
<path d="M46.7734 57H40V30.8906L31.9141 33.3984V27.8906L46.0469 22.8281H46.7734V57Z" fill="#ED3D55"/>
</svg>
